ISO-10303-21;
HEADER;
FILE_DESCRIPTION( ( 'STEP AP203' ), '1' );
FILE_NAME( 'p:/temp/worker_1/3096_3756/app_40_0201411281808378880115114780d38_00_00_00_000/STEP/6200-Z_2_03.stp', '  ', ( '  ' ), ( '  ' ), 'PSStep 15.0.47', 'PARTsolutions', '  ' );
FILE_SCHEMA( ( 'CONFIG_CONTROL_DESIGN' ) );
ENDSEC;
DATA;
#1 = DESIGN_CONTEXT( '', #90, 'design' );
#2 = APPLICATION_PROTOCOL_DEFINITION( 'international standard', 'config_control_design', 1994, #90 );
#3 = PRODUCT_CATEGORY_RELATIONSHIP( 'NONE', 'NONE', #91, #92 );
#4 = DATE_AND_TIME( #93, #94 );
#5 = DATE_TIME_ROLE( 'creation_date' );
#6 = DATE_TIME_ROLE( 'classification_date' );
#7 = PERSON_AND_ORGANIZATION_ROLE( 'creator' );
#8 = PERSON_AND_ORGANIZATION_ROLE( 'design_supplier' );
#9 = PERSON_AND_ORGANIZATION_ROLE( 'classification_officer' );
#10 = PERSON_AND_ORGANIZATION_ROLE( 'design_owner' );
#11 = APPROVAL_PERSON_ORGANIZATION( #95, #96, #97 );
#12 = APPROVAL_DATE_TIME( #4, #96 );
#13 = CC_DESIGN_APPROVAL( #96, ( #98, #99, #100 ) );
#14 = CC_DESIGN_DATE_AND_TIME_ASSIGNMENT( #4, #5, ( #100 ) );
#15 = CC_DESIGN_DATE_AND_TIME_ASSIGNMENT( #4, #6, ( #98 ) );
#16 = CC_DESIGN_PERSON_AND_ORGANIZATION_ASSIGNMENT( #95, #10, ( #101 ) );
#17 = CC_DESIGN_PERSON_AND_ORGANIZATION_ASSIGNMENT( #95, #7, ( #100 ) );
#18 = CC_DESIGN_PERSON_AND_ORGANIZATION_ASSIGNMENT( #95, #7, ( #99 ) );
#19 = CC_DESIGN_PERSON_AND_ORGANIZATION_ASSIGNMENT( #95, #8, ( #99 ) );
#20 = CC_DESIGN_SECURITY_CLASSIFICATION( #98, ( #99 ) );
#21 = CC_DESIGN_PERSON_AND_ORGANIZATION_ASSIGNMENT( #95, #9, ( #98 ) );
#22 = SHAPE_DEFINITION_REPRESENTATION( #102, #103 );
#23 = PRODUCT_CATEGORY_RELATIONSHIP( 'NONE', 'NONE', #91, #104 );
#24 = DATE_AND_TIME( #105, #106 );
#25 = APPROVAL_DATE_TIME( #24, #96 );
#26 = CC_DESIGN_APPROVAL( #96, ( #98, #107, #108 ) );
#27 = CC_DESIGN_DATE_AND_TIME_ASSIGNMENT( #24, #5, ( #108 ) );
#28 = CC_DESIGN_DATE_AND_TIME_ASSIGNMENT( #24, #6, ( #98 ) );
#29 = CC_DESIGN_PERSON_AND_ORGANIZATION_ASSIGNMENT( #95, #10, ( #109 ) );
#30 = CC_DESIGN_PERSON_AND_ORGANIZATION_ASSIGNMENT( #95, #7, ( #108 ) );
#31 = CC_DESIGN_PERSON_AND_ORGANIZATION_ASSIGNMENT( #95, #7, ( #107 ) );
#32 = CC_DESIGN_PERSON_AND_ORGANIZATION_ASSIGNMENT( #95, #8, ( #107 ) );
#33 = CC_DESIGN_SECURITY_CLASSIFICATION( #98, ( #107 ) );
#34 = CONTEXT_DEPENDENT_SHAPE_REPRESENTATION( #110, #111 );
#35 = SHAPE_DEFINITION_REPRESENTATION( #112, #113 );
#36 = SHAPE_REPRESENTATION_RELATIONSHIP( 'NONE', 'NONE', #113, #114 );
#37 = PRODUCT_CATEGORY_RELATIONSHIP( 'NONE', 'NONE', #91, #115 );
#38 = DATE_AND_TIME( #116, #117 );
#39 = APPROVAL_DATE_TIME( #38, #96 );
#40 = CC_DESIGN_APPROVAL( #96, ( #98, #118, #119 ) );
#41 = CC_DESIGN_DATE_AND_TIME_ASSIGNMENT( #38, #5, ( #119 ) );
#42 = CC_DESIGN_DATE_AND_TIME_ASSIGNMENT( #38, #6, ( #98 ) );
#43 = CC_DESIGN_PERSON_AND_ORGANIZATION_ASSIGNMENT( #95, #10, ( #120 ) );
#44 = CC_DESIGN_PERSON_AND_ORGANIZATION_ASSIGNMENT( #95, #7, ( #119 ) );
#45 = CC_DESIGN_PERSON_AND_ORGANIZATION_ASSIGNMENT( #95, #7, ( #118 ) );
#46 = CC_DESIGN_PERSON_AND_ORGANIZATION_ASSIGNMENT( #95, #8, ( #118 ) );
#47 = CC_DESIGN_SECURITY_CLASSIFICATION( #98, ( #118 ) );
#48 = CONTEXT_DEPENDENT_SHAPE_REPRESENTATION( #121, #122 );
#49 = SHAPE_DEFINITION_REPRESENTATION( #123, #124 );
#50 = SHAPE_REPRESENTATION_RELATIONSHIP( 'NONE', 'NONE', #124, #125 );
#51 = PRODUCT_CATEGORY_RELATIONSHIP( 'NONE', 'NONE', #91, #126 );
#52 = DATE_AND_TIME( #127, #128 );
#53 = APPROVAL_DATE_TIME( #52, #96 );
#54 = CC_DESIGN_APPROVAL( #96, ( #98, #129, #130 ) );
#55 = CC_DESIGN_DATE_AND_TIME_ASSIGNMENT( #52, #5, ( #130 ) );
#56 = CC_DESIGN_DATE_AND_TIME_ASSIGNMENT( #52, #6, ( #98 ) );
#57 = CC_DESIGN_PERSON_AND_ORGANIZATION_ASSIGNMENT( #95, #10, ( #131 ) );
#58 = CC_DESIGN_PERSON_AND_ORGANIZATION_ASSIGNMENT( #95, #7, ( #130 ) );
#59 = CC_DESIGN_PERSON_AND_ORGANIZATION_ASSIGNMENT( #95, #7, ( #129 ) );
#60 = CC_DESIGN_PERSON_AND_ORGANIZATION_ASSIGNMENT( #95, #8, ( #129 ) );
#61 = CC_DESIGN_SECURITY_CLASSIFICATION( #98, ( #129 ) );
#62 = CONTEXT_DEPENDENT_SHAPE_REPRESENTATION( #132, #133 );
#63 = SHAPE_DEFINITION_REPRESENTATION( #134, #135 );
#64 = SHAPE_REPRESENTATION_RELATIONSHIP( 'NONE', 'NONE', #135, #136 );
#65 = PRODUCT_CATEGORY_RELATIONSHIP( 'NONE', 'NONE', #91, #137 );
#66 = DATE_AND_TIME( #138, #139 );
#67 = APPROVAL_DATE_TIME( #66, #96 );
#68 = CC_DESIGN_APPROVAL( #96, ( #98, #140, #141 ) );
#69 = CC_DESIGN_DATE_AND_TIME_ASSIGNMENT( #66, #5, ( #141 ) );
#70 = CC_DESIGN_DATE_AND_TIME_ASSIGNMENT( #66, #6, ( #98 ) );
#71 = CC_DESIGN_PERSON_AND_ORGANIZATION_ASSIGNMENT( #95, #10, ( #142 ) );
#72 = CC_DESIGN_PERSON_AND_ORGANIZATION_ASSIGNMENT( #95, #7, ( #141 ) );
#73 = CC_DESIGN_PERSON_AND_ORGANIZATION_ASSIGNMENT( #95, #7, ( #140 ) );
#74 = CC_DESIGN_PERSON_AND_ORGANIZATION_ASSIGNMENT( #95, #8, ( #140 ) );
#75 = CC_DESIGN_SECURITY_CLASSIFICATION( #98, ( #140 ) );
#76 = CONTEXT_DEPENDENT_SHAPE_REPRESENTATION( #143, #144 );
#77 = SHAPE_DEFINITION_REPRESENTATION( #145, #146 );
#78 = SHAPE_REPRESENTATION_RELATIONSHIP( 'NONE', 'NONE', #146, #147 );
#79 = CONTEXT_DEPENDENT_SHAPE_REPRESENTATION( #148, #149 );
#80 = CONTEXT_DEPENDENT_SHAPE_REPRESENTATION( #150, #151 );
#81 = CONTEXT_DEPENDENT_SHAPE_REPRESENTATION( #152, #153 );
#82 = CONTEXT_DEPENDENT_SHAPE_REPRESENTATION( #154, #155 );
#83 = CONTEXT_DEPENDENT_SHAPE_REPRESENTATION( #156, #157 );
#84 = CONTEXT_DEPENDENT_SHAPE_REPRESENTATION( #158, #159 );
#85 = CONTEXT_DEPENDENT_SHAPE_REPRESENTATION( #160, #161 );
#86 =  ( GEOMETRIC_REPRESENTATION_CONTEXT( 3 )GLOBAL_UNCERTAINTY_ASSIGNED_CONTEXT( ( #164 ) )GLOBAL_UNIT_ASSIGNED_CONTEXT( ( #166, #167, #168 ) )REPRESENTATION_CONTEXT( 'NONE', 'WORKSPACE' ) );
#90 = APPLICATION_CONTEXT( 'configuration controlled 3D designs of mechanical parts and assemblies' );
#91 = PRODUCT_CATEGORY( 'part', 'NONE' );
#92 = PRODUCT_RELATED_PRODUCT_CATEGORY( 'detail', ' ', ( #101 ) );
#93 = CALENDAR_DATE( 2014, 28, 10 );
#94 = LOCAL_TIME( 18, 8, 40.0000000000000, #170 );
#95 = PERSON_AND_ORGANIZATION( #171, #172 );
#96 = APPROVAL( #173, 'SOLID MODEL' );
#97 = APPROVAL_ROLE( 'APPROVED' );
#98 = SECURITY_CLASSIFICATION( '', '', #174 );
#99 = PRODUCT_DEFINITION_FORMATION_WITH_SPECIFIED_SOURCE( ' ', 'NONE', #101, .NOT_KNOWN. );
#100 = PRODUCT_DEFINITION( 'NONE', 'NONE', #99, #1 );
#101 = PRODUCT( '6200-Z', '6200-Z', 'PART-6200-Z-DESC', ( #175 ) );
#102 = PRODUCT_DEFINITION_SHAPE( 'NONE', 'NONE', #100 );
#103 = SHAPE_REPRESENTATION( '6200-Z', ( #176, #177, #178, #179, #180, #181, #182, #183, #184, #185, #186, #187 ), #188 );
#104 = PRODUCT_RELATED_PRODUCT_CATEGORY( 'detail', ' ', ( #109 ) );
#105 = CALENDAR_DATE( 2014, 28, 10 );
#106 = LOCAL_TIME( 18, 8, 40.0000000000000, #189 );
#107 = PRODUCT_DEFINITION_FORMATION_WITH_SPECIFIED_SOURCE( ' ', 'NONE', #109, .NOT_KNOWN. );
#108 = PRODUCT_DEFINITION( '_6200-Z_PART1', '_6200-Z_PART1', #107, #1 );
#109 = PRODUCT( '_6200-Z_PART1', '_6200-Z_PART1', 'PART-_6200-Z_PART1-DESC', ( #175 ) );
#110 = ( REPRESENTATION_RELATIONSHIP( '', '', #113, #103 )REPRESENTATION_RELATIONSHIP_WITH_TRANSFORMATION( #192 )SHAPE_REPRESENTATION_RELATIONSHIP(  ) );
#111 = PRODUCT_DEFINITION_SHAPE( 'NAUO-PROD-DEF', 'NAUO-PROD-DEF', #194 );
#112 = PRODUCT_DEFINITION_SHAPE( 'NONE', 'NONE', #108 );
#113 = SHAPE_REPRESENTATION( '_6200-Z_PART1', ( #176 ), #188 );
#114 = ADVANCED_BREP_SHAPE_REPRESENTATION( '_6200-Z_PART1', ( #195 ), #86 );
#115 = PRODUCT_RELATED_PRODUCT_CATEGORY( 'detail', ' ', ( #120 ) );
#116 = CALENDAR_DATE( 2014, 28, 10 );
#117 = LOCAL_TIME( 18, 8, 40.0000000000000, #196 );
#118 = PRODUCT_DEFINITION_FORMATION_WITH_SPECIFIED_SOURCE( ' ', 'NONE', #120, .NOT_KNOWN. );
#119 = PRODUCT_DEFINITION( '_6200-Z_PART2', '_6200-Z_PART2', #118, #1 );
#120 = PRODUCT( '_6200-Z_PART2', '_6200-Z_PART2', 'PART-_6200-Z_PART2-DESC', ( #175 ) );
#121 = ( REPRESENTATION_RELATIONSHIP( '', '', #124, #103 )REPRESENTATION_RELATIONSHIP_WITH_TRANSFORMATION( #199 )SHAPE_REPRESENTATION_RELATIONSHIP(  ) );
#122 = PRODUCT_DEFINITION_SHAPE( 'NAUO-PROD-DEF', 'NAUO-PROD-DEF', #201 );
#123 = PRODUCT_DEFINITION_SHAPE( 'NONE', 'NONE', #119 );
#124 = SHAPE_REPRESENTATION( '_6200-Z_PART2', ( #176 ), #188 );
#125 = ADVANCED_BREP_SHAPE_REPRESENTATION( '_6200-Z_PART2', ( #202 ), #86 );
#126 = PRODUCT_RELATED_PRODUCT_CATEGORY( 'detail', ' ', ( #131 ) );
#127 = CALENDAR_DATE( 2014, 28, 10 );
#128 = LOCAL_TIME( 18, 8, 40.0000000000000, #203 );
#129 = PRODUCT_DEFINITION_FORMATION_WITH_SPECIFIED_SOURCE( ' ', 'NONE', #131, .NOT_KNOWN. );
#130 = PRODUCT_DEFINITION( '_6200-Z_PART3', '_6200-Z_PART3', #129, #1 );
#131 = PRODUCT( '_6200-Z_PART3', '_6200-Z_PART3', 'PART-_6200-Z_PART3-DESC', ( #175 ) );
#132 = ( REPRESENTATION_RELATIONSHIP( '', '', #135, #103 )REPRESENTATION_RELATIONSHIP_WITH_TRANSFORMATION( #206 )SHAPE_REPRESENTATION_RELATIONSHIP(  ) );
#133 = PRODUCT_DEFINITION_SHAPE( 'NAUO-PROD-DEF', 'NAUO-PROD-DEF', #208 );
#134 = PRODUCT_DEFINITION_SHAPE( 'NONE', 'NONE', #130 );
#135 = SHAPE_REPRESENTATION( '_6200-Z_PART3', ( #176 ), #188 );
#136 = ADVANCED_BREP_SHAPE_REPRESENTATION( '_6200-Z_PART3', ( #209 ), #86 );
#137 = PRODUCT_RELATED_PRODUCT_CATEGORY( 'detail', ' ', ( #142 ) );
#138 = CALENDAR_DATE( 2014, 28, 10 );
#139 = LOCAL_TIME( 18, 8, 40.0000000000000, #210 );
#140 = PRODUCT_DEFINITION_FORMATION_WITH_SPECIFIED_SOURCE( ' ', 'NONE', #142, .NOT_KNOWN. );
#141 = PRODUCT_DEFINITION( '_6200-Z_PART4', '_6200-Z_PART4', #140, #1 );
#142 = PRODUCT( '_6200-Z_PART4', '_6200-Z_PART4', 'PART-_6200-Z_PART4-DESC', ( #175 ) );
#143 = ( REPRESENTATION_RELATIONSHIP( '', '', #146, #103 )REPRESENTATION_RELATIONSHIP_WITH_TRANSFORMATION( #213 )SHAPE_REPRESENTATION_RELATIONSHIP(  ) );
#144 = PRODUCT_DEFINITION_SHAPE( 'NAUO-PROD-DEF', 'NAUO-PROD-DEF', #215 );
#145 = PRODUCT_DEFINITION_SHAPE( 'NONE', 'NONE', #141 );
#146 = SHAPE_REPRESENTATION( '_6200-Z_PART4', ( #176 ), #188 );
#147 = ADVANCED_BREP_SHAPE_REPRESENTATION( '_6200-Z_PART4', ( #216 ), #86 );
#148 = ( REPRESENTATION_RELATIONSHIP( '', '', #146, #103 )REPRESENTATION_RELATIONSHIP_WITH_TRANSFORMATION( #219 )SHAPE_REPRESENTATION_RELATIONSHIP(  ) );
#149 = PRODUCT_DEFINITION_SHAPE( 'NAUO-PROD-DEF', 'NAUO-PROD-DEF', #221 );
#150 = ( REPRESENTATION_RELATIONSHIP( '', '', #146, #103 )REPRESENTATION_RELATIONSHIP_WITH_TRANSFORMATION( #224 )SHAPE_REPRESENTATION_RELATIONSHIP(  ) );
#151 = PRODUCT_DEFINITION_SHAPE( 'NAUO-PROD-DEF', 'NAUO-PROD-DEF', #226 );
#152 = ( REPRESENTATION_RELATIONSHIP( '', '', #146, #103 )REPRESENTATION_RELATIONSHIP_WITH_TRANSFORMATION( #229 )SHAPE_REPRESENTATION_RELATIONSHIP(  ) );
#153 = PRODUCT_DEFINITION_SHAPE( 'NAUO-PROD-DEF', 'NAUO-PROD-DEF', #231 );
#154 = ( REPRESENTATION_RELATIONSHIP( '', '', #146, #103 )REPRESENTATION_RELATIONSHIP_WITH_TRANSFORMATION( #234 )SHAPE_REPRESENTATION_RELATIONSHIP(  ) );
#155 = PRODUCT_DEFINITION_SHAPE( 'NAUO-PROD-DEF', 'NAUO-PROD-DEF', #236 );
#156 = ( REPRESENTATION_RELATIONSHIP( '', '', #146, #103 )REPRESENTATION_RELATIONSHIP_WITH_TRANSFORMATION( #239 )SHAPE_REPRESENTATION_RELATIONSHIP(  ) );
#157 = PRODUCT_DEFINITION_SHAPE( 'NAUO-PROD-DEF', 'NAUO-PROD-DEF', #241 );
#158 = ( REPRESENTATION_RELATIONSHIP( '', '', #146, #103 )REPRESENTATION_RELATIONSHIP_WITH_TRANSFORMATION( #244 )SHAPE_REPRESENTATION_RELATIONSHIP(  ) );
#159 = PRODUCT_DEFINITION_SHAPE( 'NAUO-PROD-DEF', 'NAUO-PROD-DEF', #246 );
#160 = ( REPRESENTATION_RELATIONSHIP( '', '', #146, #103 )REPRESENTATION_RELATIONSHIP_WITH_TRANSFORMATION( #249 )SHAPE_REPRESENTATION_RELATIONSHIP(  ) );
#161 = PRODUCT_DEFINITION_SHAPE( 'NAUO-PROD-DEF', 'NAUO-PROD-DEF', #251 );
#164 = UNCERTAINTY_MEASURE_WITH_UNIT( LENGTH_MEASURE( 0.00100000000000000 ), #166, '', '' );
#166 =  ( CONVERSION_BASED_UNIT( 'MILLIMETRE', #254 )LENGTH_UNIT(  )NAMED_UNIT( #257 ) );
#167 =  ( NAMED_UNIT( #259 )PLANE_ANGLE_UNIT(  )SI_UNIT( $, .RADIAN. ) );
#168 =  ( NAMED_UNIT( #259 )SI_UNIT( $, .STERADIAN. )SOLID_ANGLE_UNIT(  ) );
#170 = COORDINATED_UNIVERSAL_TIME_OFFSET( 1, 0, .AHEAD. );
#171 = PERSON( '', 'UNSPECIFIED', $, $, $, $ );
#172 = ORGANIZATION( 'UNSPECIFIED', 'UNSPECIFIED', 'UNSPECIFIED' );
#173 = APPROVAL_STATUS( 'approved' );
#174 = SECURITY_CLASSIFICATION_LEVEL( 'unclassified' );
#175 = MECHANICAL_CONTEXT( '', #90, 'mechanical' );
#176 = AXIS2_PLACEMENT_3D( '', #265, #266, #267 );
#177 = AXIS2_PLACEMENT_3D( '', #268, #269, #270 );
#178 = AXIS2_PLACEMENT_3D( '', #271, #272, #273 );
#179 = AXIS2_PLACEMENT_3D( '', #274, #275, #276 );
#180 = AXIS2_PLACEMENT_3D( '', #277, #278, #279 );
#181 = AXIS2_PLACEMENT_3D( '', #280, #281, #282 );
#182 = AXIS2_PLACEMENT_3D( '', #283, #284, #285 );
#183 = AXIS2_PLACEMENT_3D( '', #286, #287, #288 );
#184 = AXIS2_PLACEMENT_3D( '', #289, #290, #291 );
#185 = AXIS2_PLACEMENT_3D( '', #292, #293, #294 );
#186 = AXIS2_PLACEMENT_3D( '', #295, #296, #297 );
#187 = AXIS2_PLACEMENT_3D( '', #298, #299, #300 );
#188 =  ( GEOMETRIC_REPRESENTATION_CONTEXT( 3 )GLOBAL_UNCERTAINTY_ASSIGNED_CONTEXT( ( #303 ) )GLOBAL_UNIT_ASSIGNED_CONTEXT( ( #305, #306, #307 ) )REPRESENTATION_CONTEXT( 'NONE', 'WORKSPACE' ) );
#189 = COORDINATED_UNIVERSAL_TIME_OFFSET( 1, 0, .AHEAD. );
#192 = ITEM_DEFINED_TRANSFORMATION( '', '', #176, #177 );
#194 = NEXT_ASSEMBLY_USAGE_OCCURRENCE( 'NAUO1', 'NAUO1', 'NAUO1', #100, #108, $ );
#195 = MANIFOLD_SOLID_BREP( '_6200-Z_PART1', #309 );
#196 = COORDINATED_UNIVERSAL_TIME_OFFSET( 1, 0, .AHEAD. );
#199 = ITEM_DEFINED_TRANSFORMATION( '', '', #176, #178 );
#201 = NEXT_ASSEMBLY_USAGE_OCCURRENCE( 'NAUO2', 'NAUO2', 'NAUO2', #100, #119, $ );
#202 = MANIFOLD_SOLID_BREP( '_6200-Z_PART2', #310 );
#203 = COORDINATED_UNIVERSAL_TIME_OFFSET( 1, 0, .AHEAD. );
#206 = ITEM_DEFINED_TRANSFORMATION( '', '', #176, #179 );
#208 = NEXT_ASSEMBLY_USAGE_OCCURRENCE( 'NAUO3', 'NAUO3', 'NAUO3', #100, #130, $ );
#209 = MANIFOLD_SOLID_BREP( '_6200-Z_PART3', #311 );
#210 = COORDINATED_UNIVERSAL_TIME_OFFSET( 1, 0, .AHEAD. );
#213 = ITEM_DEFINED_TRANSFORMATION( '', '', #176, #180 );
#215 = NEXT_ASSEMBLY_USAGE_OCCURRENCE( 'NAUO4', 'NAUO4', 'NAUO4', #100, #141, $ );
#216 = MANIFOLD_SOLID_BREP( '_6200-Z_PART4', #312 );
#219 = ITEM_DEFINED_TRANSFORMATION( '', '', #176, #181 );
#221 = NEXT_ASSEMBLY_USAGE_OCCURRENCE( 'NAUO5', 'NAUO5', 'NAUO5', #100, #141, $ );
#224 = ITEM_DEFINED_TRANSFORMATION( '', '', #176, #182 );
#226 = NEXT_ASSEMBLY_USAGE_OCCURRENCE( 'NAUO6', 'NAUO6', 'NAUO6', #100, #141, $ );
#229 = ITEM_DEFINED_TRANSFORMATION( '', '', #176, #183 );
#231 = NEXT_ASSEMBLY_USAGE_OCCURRENCE( 'NAUO7', 'NAUO7', 'NAUO7', #100, #141, $ );
#234 = ITEM_DEFINED_TRANSFORMATION( '', '', #176, #184 );
#236 = NEXT_ASSEMBLY_USAGE_OCCURRENCE( 'NAUO8', 'NAUO8', 'NAUO8', #100, #141, $ );
#239 = ITEM_DEFINED_TRANSFORMATION( '', '', #176, #185 );
#241 = NEXT_ASSEMBLY_USAGE_OCCURRENCE( 'NAUO9', 'NAUO9', 'NAUO9', #100, #141, $ );
#244 = ITEM_DEFINED_TRANSFORMATION( '', '', #176, #186 );
#246 = NEXT_ASSEMBLY_USAGE_OCCURRENCE( 'NAUO10', 'NAUO10', 'NAUO10', #100, #141, $ );
#249 = ITEM_DEFINED_TRANSFORMATION( '', '', #176, #187 );
#251 = NEXT_ASSEMBLY_USAGE_OCCURRENCE( 'NAUO11', 'NAUO11', 'NAUO11', #100, #141, $ );
#254 = LENGTH_MEASURE_WITH_UNIT( LENGTH_MEASURE( 1.00000000000000 ), #313 );
#257 = DIMENSIONAL_EXPONENTS( 1.00000000000000, 0.000000000000000, 0.000000000000000, 0.000000000000000, 0.000000000000000, 0.000000000000000, 0.000000000000000 );
#259 = DIMENSIONAL_EXPONENTS( 0.000000000000000, 0.000000000000000, 0.000000000000000, 0.000000000000000, 0.000000000000000, 0.000000000000000, 0.000000000000000 );
#265 = CARTESIAN_POINT( '', ( 0.000000000000000, 0.000000000000000, 0.000000000000000 ) );
#266 = DIRECTION( '', ( 0.000000000000000, 0.000000000000000, 1.00000000000000 ) );
#267 = DIRECTION( '', ( 1.00000000000000, 0.000000000000000, 0.000000000000000 ) );
#268 = CARTESIAN_POINT( '', ( 0.000000000000000, 0.000000000000000, 0.000000000000000 ) );
#269 = DIRECTION( '', ( 0.000000000000000, 0.000000000000000, 1.00000000000000 ) );
#270 = DIRECTION( '', ( 1.00000000000000, 0.000000000000000, 0.000000000000000 ) );
#271 = CARTESIAN_POINT( '', ( 0.000000000000000, 0.000000000000000, 0.000000000000000 ) );
#272 = DIRECTION( '', ( 0.000000000000000, 0.000000000000000, 1.00000000000000 ) );
#273 = DIRECTION( '', ( 1.00000000000000, 0.000000000000000, 0.000000000000000 ) );
#274 = CARTESIAN_POINT( '', ( 0.000000000000000, 0.000000000000000, 0.000000000000000 ) );
#275 = DIRECTION( '', ( 0.000000000000000, 0.000000000000000, 1.00000000000000 ) );
#276 = DIRECTION( '', ( 1.00000000000000, 0.000000000000000, 0.000000000000000 ) );
#277 = CARTESIAN_POINT( '', ( 0.000000000000000, 0.000000000000000, 0.000000000000000 ) );
#278 = DIRECTION( '', ( 0.000000000000000, 0.000000000000000, 1.00000000000000 ) );
#279 = DIRECTION( '', ( 1.00000000000000, 0.000000000000000, 0.000000000000000 ) );
#280 = CARTESIAN_POINT( '', ( 0.000000000000000, 0.000000000000000, 0.000000000000000 ) );
#281 = DIRECTION( '', ( -0.000000000000000, 0.707106781186547, 0.707106781186548 ) );
#282 = DIRECTION( '', ( 1.00000000000000, 0.000000000000000, 0.000000000000000 ) );
#283 = CARTESIAN_POINT( '', ( 0.000000000000000, 0.000000000000000, 0.000000000000000 ) );
#284 = DIRECTION( '', ( -0.000000000000000, 1.00000000000000, 0.000000000000000 ) );
#285 = DIRECTION( '', ( 1.00000000000000, 0.000000000000000, 0.000000000000000 ) );
#286 = CARTESIAN_POINT( '', ( 0.000000000000000, 0.000000000000000, 0.000000000000000 ) );
#287 = DIRECTION( '', ( 0.000000000000000, 0.707106781186548, -0.707106781186547 ) );
#288 = DIRECTION( '', ( 1.00000000000000, 0.000000000000000, 0.000000000000000 ) );
#289 = CARTESIAN_POINT( '', ( 0.000000000000000, 0.000000000000000, 0.000000000000000 ) );
#290 = DIRECTION( '', ( 0.000000000000000, 0.000000000000000, -1.00000000000000 ) );
#291 = DIRECTION( '', ( 1.00000000000000, 0.000000000000000, 0.000000000000000 ) );
#292 = CARTESIAN_POINT( '', ( 0.000000000000000, 0.000000000000000, 0.000000000000000 ) );
#293 = DIRECTION( '', ( 0.000000000000000, -0.707106781186547, -0.707106781186548 ) );
#294 = DIRECTION( '', ( 1.00000000000000, 0.000000000000000, 0.000000000000000 ) );
#295 = CARTESIAN_POINT( '', ( 0.000000000000000, 0.000000000000000, 0.000000000000000 ) );
#296 = DIRECTION( '', ( 0.000000000000000, -1.00000000000000, 0.000000000000000 ) );
#297 = DIRECTION( '', ( 1.00000000000000, 0.000000000000000, 0.000000000000000 ) );
#298 = CARTESIAN_POINT( '', ( 0.000000000000000, 0.000000000000000, 0.000000000000000 ) );
#299 = DIRECTION( '', ( 0.000000000000000, -0.707106781186548, 0.707106781186547 ) );
#300 = DIRECTION( '', ( 1.00000000000000, 0.000000000000000, 0.000000000000000 ) );
#303 = UNCERTAINTY_MEASURE_WITH_UNIT( LENGTH_MEASURE( 0.00100000000000000 ), #305, '', '' );
#305 =  ( CONVERSION_BASED_UNIT( 'MILLIMETRE', #316 )LENGTH_UNIT(  )NAMED_UNIT( #319 ) );
#306 =  ( NAMED_UNIT( #321 )PLANE_ANGLE_UNIT(  )SI_UNIT( $, .RADIAN. ) );
#307 =  ( NAMED_UNIT( #321 )SI_UNIT( $, .STERADIAN. )SOLID_ANGLE_UNIT(  ) );
#309 = CLOSED_SHELL( '', ( #327, #328, #329, #330, #331, #332, #333, #334, #335, #336 ) );
#310 = CLOSED_SHELL( '', ( #337, #338, #339, #340, #341, #342, #343, #344, #345, #346, #347, #348, #349, #350 ) );
#311 = CLOSED_SHELL( '', ( #351, #352, #353, #354, #355, #356, #357, #358 ) );
#312 = CLOSED_SHELL( '', ( #359 ) );
#313 =  ( LENGTH_UNIT(  )NAMED_UNIT( #257 )SI_UNIT( .MILLI., .METRE. ) );
#316 = LENGTH_MEASURE_WITH_UNIT( LENGTH_MEASURE( 1.00000000000000 ), #361 );
#319 = DIMENSIONAL_EXPONENTS( 1.00000000000000, 0.000000000000000, 0.000000000000000, 0.000000000000000, 0.000000000000000, 0.000000000000000, 0.000000000000000 );
#321 = DIMENSIONAL_EXPONENTS( 0.000000000000000, 0.000000000000000, 0.000000000000000, 0.000000000000000, 0.000000000000000, 0.000000000000000, 0.000000000000000 );
#327 = ADVANCED_FACE( '', ( #362, #363 ), #364, .T. );
#328 = ADVANCED_FACE( '', ( #365, #366 ), #367, .T. );
#329 = ADVANCED_FACE( '', ( #368, #369 ), #370, .T. );
#330 = ADVANCED_FACE( '', ( #371, #372 ), #373, .F. );
#331 = ADVANCED_FACE( '', ( #374, #375 ), #376, .T. );
#332 = ADVANCED_FACE( '', ( #377, #378 ), #379, .T. );
#333 = ADVANCED_FACE( '', ( #380, #381 ), #382, .T. );
#334 = ADVANCED_FACE( '', ( #383, #384 ), #385, .T. );
#335 = ADVANCED_FACE( '', ( #386, #387 ), #388, .F. );
#336 = ADVANCED_FACE( '', ( #389, #390 ), #391, .T. );
#337 = ADVANCED_FACE( '', ( #392, #393 ), #394, .T. );
#338 = ADVANCED_FACE( '', ( #395, #396 ), #397, .T. );
#339 = ADVANCED_FACE( '', ( #398, #399 ), #400, .T. );
#340 = ADVANCED_FACE( '', ( #401, #402 ), #403, .F. );
#341 = ADVANCED_FACE( '', ( #404, #405, #406 ), #407, .F. );
#342 = ADVANCED_FACE( '', ( #408, #409 ), #410, .F. );
#343 = ADVANCED_FACE( '', ( #411, #412 ), #413, .F. );
#344 = ADVANCED_FACE( '', ( #414, #415, #416 ), #417, .F. );
#345 = ADVANCED_FACE( '', ( #418, #419 ), #420, .F. );
#346 = ADVANCED_FACE( '', ( #421, #422 ), #423, .F. );
#347 = ADVANCED_FACE( '', ( #424, #425, #426 ), #427, .F. );
#348 = ADVANCED_FACE( '', ( #428, #429 ), #430, .F. );
#349 = ADVANCED_FACE( '', ( #431, #432 ), #433, .T. );
#350 = ADVANCED_FACE( '', ( #434, #435 ), #436, .T. );
#351 = ADVANCED_FACE( '', ( #437, #438 ), #439, .T. );
#352 = ADVANCED_FACE( '', ( #440, #441 ), #442, .T. );
#353 = ADVANCED_FACE( '', ( #443, #444 ), #445, .F. );
#354 = ADVANCED_FACE( '', ( #446, #447 ), #448, .F. );
#355 = ADVANCED_FACE( '', ( #449, #450 ), #451, .T. );
#356 = ADVANCED_FACE( '', ( #452, #453 ), #454, .T. );
#357 = ADVANCED_FACE( '', ( #455, #456 ), #457, .T. );
#358 = ADVANCED_FACE( '', ( #458, #459 ), #460, .F. );
#359 = ADVANCED_FACE( '', ( #461, #462 ), #463, .T. );
#361 =  ( LENGTH_UNIT(  )NAMED_UNIT( #319 )SI_UNIT( .MILLI., .METRE. ) );
#362 = FACE_BOUND( '', #465, .T. );
#363 = FACE_OUTER_BOUND( '', #466, .T. );
#364 = PLANE( '', #467 );
#365 = FACE_OUTER_BOUND( '', #468, .T. );
#366 = FACE_OUTER_BOUND( '', #469, .T. );
#367 = TOROIDAL_SURFACE( '', #470, 8.30000000000000, 0.200000000000001 );
#368 = FACE_OUTER_BOUND( '', #471, .T. );
#369 = FACE_OUTER_BOUND( '', #472, .T. );
#370 = TOROIDAL_SURFACE( '', #473, 5.60000000000000, 0.599999999999999 );
#371 = FACE_OUTER_BOUND( '', #474, .T. );
#372 = FACE_OUTER_BOUND( '', #475, .T. );
#373 = CYLINDRICAL_SURFACE( '', #476, 5.00000000000000 );
#374 = FACE_OUTER_BOUND( '', #477, .T. );
#375 = FACE_OUTER_BOUND( '', #478, .T. );
#376 = TOROIDAL_SURFACE( '', #479, 5.60000000000000, 0.600000000000003 );
#377 = FACE_OUTER_BOUND( '', #480, .T. );
#378 = FACE_BOUND( '', #481, .T. );
#379 = PLANE( '', #482 );
#380 = FACE_OUTER_BOUND( '', #483, .T. );
#381 = FACE_OUTER_BOUND( '', #484, .T. );
#382 = TOROIDAL_SURFACE( '', #485, 8.30000000000000, 0.200000000000001 );
#383 = FACE_OUTER_BOUND( '', #486, .T. );
#384 = FACE_OUTER_BOUND( '', #487, .T. );
#385 = CYLINDRICAL_SURFACE( '', #488, 8.50000000000000 );
#386 = FACE_OUTER_BOUND( '', #489, .T. );
#387 = FACE_OUTER_BOUND( '', #490, .T. );
#388 = TOROIDAL_SURFACE( '', #491, 10.0000000000000, 2.38100000000000 );
#389 = FACE_OUTER_BOUND( '', #492, .T. );
#390 = FACE_OUTER_BOUND( '', #493, .T. );
#391 = CYLINDRICAL_SURFACE( '', #494, 8.50000000000000 );
#392 = FACE_OUTER_BOUND( '', #495, .T. );
#393 = FACE_OUTER_BOUND( '', #496, .T. );
#394 = TOROIDAL_SURFACE( '', #497, 14.4000000000000, 0.600000000000000 );
#395 = FACE_OUTER_BOUND( '', #498, .T. );
#396 = FACE_OUTER_BOUND( '', #499, .T. );
#397 = CYLINDRICAL_SURFACE( '', #500, 15.0000000000000 );
#398 = FACE_BOUND( '', #501, .T. );
#399 = FACE_OUTER_BOUND( '', #502, .T. );
#400 = PLANE( '', #503 );
#401 = FACE_OUTER_BOUND( '', #504, .T. );
#402 = FACE_OUTER_BOUND( '', #505, .T. );
#403 = CYLINDRICAL_SURFACE( '', #506, 12.4000000000000 );
#404 = FACE_BOUND( '', #507, .T. );
#405 = FACE_OUTER_BOUND( '', #508, .T. );
#406 = FACE_OUTER_BOUND( '', #509, .T. );
#407 = TOROIDAL_SURFACE( '', #510, 12.4000000000000, 0.283000000000000 );
#408 = FACE_BOUND( '', #511, .T. );
#409 = FACE_OUTER_BOUND( '', #512, .T. );
#410 = CONICAL_SURFACE( '', #513, 12.4000000000000, 1.39626340159547 );
#411 = FACE_OUTER_BOUND( '', #514, .T. );
#412 = FACE_OUTER_BOUND( '', #515, .T. );
#413 = CYLINDRICAL_SURFACE( '', #516, 11.7000000000000 );
#414 = FACE_BOUND( '', #517, .T. );
#415 = FACE_OUTER_BOUND( '', #518, .T. );
#416 = FACE_OUTER_BOUND( '', #519, .T. );
#417 = TOROIDAL_SURFACE( '', #520, 10.0000000000000, 2.38100000000000 );
#418 = FACE_OUTER_BOUND( '', #521, .T. );
#419 = FACE_OUTER_BOUND( '', #522, .T. );
#420 = CYLINDRICAL_SURFACE( '', #523, 11.7000000000000 );
#421 = FACE_OUTER_BOUND( '', #524, .T. );
#422 = FACE_BOUND( '', #525, .T. );
#423 = CONICAL_SURFACE( '', #526, 11.7000000000000, 1.39626340159546 );
#424 = FACE_BOUND( '', #527, .T. );
#425 = FACE_OUTER_BOUND( '', #528, .T. );
#426 = FACE_OUTER_BOUND( '', #529, .T. );
#427 = TOROIDAL_SURFACE( '', #530, 12.4000000166600, 0.282999999999999 );
#428 = FACE_OUTER_BOUND( '', #531, .T. );
#429 = FACE_OUTER_BOUND( '', #532, .T. );
#430 = CYLINDRICAL_SURFACE( '', #533, 12.4000002468600 );
#431 = FACE_OUTER_BOUND( '', #534, .T. );
#432 = FACE_BOUND( '', #535, .T. );
#433 = PLANE( '', #536 );
#434 = FACE_OUTER_BOUND( '', #537, .T. );
#435 = FACE_OUTER_BOUND( '', #538, .T. );
#436 = TOROIDAL_SURFACE( '', #539, 14.4000000000000, 0.599999999999998 );
#437 = FACE_BOUND( '', #540, .T. );
#438 = FACE_OUTER_BOUND( '', #541, .T. );
#439 = PLANE( '', #542 );
#440 = FACE_BOUND( '', #543, .T. );
#441 = FACE_OUTER_BOUND( '', #544, .T. );
#442 = CONICAL_SURFACE( '', #545, 11.4250000000000, 1.48513467482621 );
#443 = FACE_OUTER_BOUND( '', #546, .T. );
#444 = FACE_OUTER_BOUND( '', #547, .T. );
#445 = CYLINDRICAL_SURFACE( '', #548, 8.50000000000000 );
#446 = FACE_OUTER_BOUND( '', #549, .T. );
#447 = FACE_BOUND( '', #550, .T. );
#448 = CONICAL_SURFACE( '', #551, 8.50000000000000, 1.48513467482621 );
#449 = FACE_OUTER_BOUND( '', #552, .T. );
#450 = FACE_BOUND( '', #553, .T. );
#451 = PLANE( '', #554 );
#452 = FACE_OUTER_BOUND( '', #555, .T. );
#453 = FACE_BOUND( '', #556, .T. );
#454 = CONICAL_SURFACE( '', #557, 11.4034311519231, 1.40432483690449 );
#455 = FACE_OUTER_BOUND( '', #558, .T. );
#456 = FACE_OUTER_BOUND( '', #559, .T. );
#457 = CYLINDRICAL_SURFACE( '', #560, 12.4000000000000 );
#458 = FACE_BOUND( '', #561, .T. );
#459 = FACE_OUTER_BOUND( '', #562, .T. );
#460 = CONICAL_SURFACE( '', #563, 12.4000000000000, 1.48513467482621 );
#461 = FACE_BOUND( '', #564, .T. );
#462 = FACE_BOUND( '', #565, .T. );
#463 = SPHERICAL_SURFACE( '', #566, 2.38100000000000 );
#465 = EDGE_LOOP( '', ( #567 ) );
#466 = EDGE_LOOP( '', ( #568 ) );
#467 = AXIS2_PLACEMENT_3D( '', #569, #570, #571 );
#468 = EDGE_LOOP( '', ( #572 ) );
#469 = EDGE_LOOP( '', ( #573 ) );
#470 = AXIS2_PLACEMENT_3D( '', #574, #575, #576 );
#471 = EDGE_LOOP( '', ( #577 ) );
#472 = EDGE_LOOP( '', ( #578 ) );
#473 = AXIS2_PLACEMENT_3D( '', #579, #580, #581 );
#474 = EDGE_LOOP( '', ( #582 ) );
#475 = EDGE_LOOP( '', ( #583 ) );
#476 = AXIS2_PLACEMENT_3D( '', #584, #585, #586 );
#477 = EDGE_LOOP( '', ( #587 ) );
#478 = EDGE_LOOP( '', ( #588 ) );
#479 = AXIS2_PLACEMENT_3D( '', #589, #590, #591 );
#480 = EDGE_LOOP( '', ( #592 ) );
#481 = EDGE_LOOP( '', ( #593 ) );
#482 = AXIS2_PLACEMENT_3D( '', #594, #595, #596 );
#483 = EDGE_LOOP( '', ( #597 ) );
#484 = EDGE_LOOP( '', ( #598 ) );
#485 = AXIS2_PLACEMENT_3D( '', #599, #600, #601 );
#486 = EDGE_LOOP( '', ( #602 ) );
#487 = EDGE_LOOP( '', ( #603 ) );
#488 = AXIS2_PLACEMENT_3D( '', #604, #605, #606 );
#489 = EDGE_LOOP( '', ( #607 ) );
#490 = EDGE_LOOP( '', ( #608 ) );
#491 = AXIS2_PLACEMENT_3D( '', #609, #610, #611 );
#492 = EDGE_LOOP( '', ( #612 ) );
#493 = EDGE_LOOP( '', ( #613 ) );
#494 = AXIS2_PLACEMENT_3D( '', #614, #615, #616 );
#495 = EDGE_LOOP( '', ( #617 ) );
#496 = EDGE_LOOP( '', ( #618 ) );
#497 = AXIS2_PLACEMENT_3D( '', #619, #620, #621 );
#498 = EDGE_LOOP( '', ( #622 ) );
#499 = EDGE_LOOP( '', ( #623 ) );
#500 = AXIS2_PLACEMENT_3D( '', #624, #625, #626 );
#501 = EDGE_LOOP( '', ( #627 ) );
#502 = EDGE_LOOP( '', ( #628 ) );
#503 = AXIS2_PLACEMENT_3D( '', #629, #630, #631 );
#504 = EDGE_LOOP( '', ( #632 ) );
#505 = EDGE_LOOP( '', ( #633 ) );
#506 = AXIS2_PLACEMENT_3D( '', #634, #635, #636 );
#507 = VERTEX_LOOP( '', #637 );
#508 = EDGE_LOOP( '', ( #638 ) );
#509 = EDGE_LOOP( '', ( #639 ) );
#510 = AXIS2_PLACEMENT_3D( '', #640, #641, #642 );
#511 = EDGE_LOOP( '', ( #643 ) );
#512 = EDGE_LOOP( '', ( #644 ) );
#513 = AXIS2_PLACEMENT_3D( '', #645, #646, #647 );
#514 = EDGE_LOOP( '', ( #648 ) );
#515 = EDGE_LOOP( '', ( #649 ) );
#516 = AXIS2_PLACEMENT_3D( '', #650, #651, #652 );
#517 = VERTEX_LOOP( '', #653 );
#518 = EDGE_LOOP( '', ( #654 ) );
#519 = EDGE_LOOP( '', ( #655 ) );
#520 = AXIS2_PLACEMENT_3D( '', #656, #657, #658 );
#521 = EDGE_LOOP( '', ( #659 ) );
#522 = EDGE_LOOP( '', ( #660 ) );
#523 = AXIS2_PLACEMENT_3D( '', #661, #662, #663 );
#524 = EDGE_LOOP( '', ( #664 ) );
#525 = EDGE_LOOP( '', ( #665 ) );
#526 = AXIS2_PLACEMENT_3D( '', #666, #667, #668 );
#527 = VERTEX_LOOP( '', #669 );
#528 = EDGE_LOOP( '', ( #670 ) );
#529 = EDGE_LOOP( '', ( #671 ) );
#530 = AXIS2_PLACEMENT_3D( '', #672, #673, #674 );
#531 = EDGE_LOOP( '', ( #675 ) );
#532 = EDGE_LOOP( '', ( #676 ) );
#533 = AXIS2_PLACEMENT_3D( '', #677, #678, #679 );
#534 = EDGE_LOOP( '', ( #680 ) );
#535 = EDGE_LOOP( '', ( #681 ) );
#536 = AXIS2_PLACEMENT_3D( '', #682, #683, #684 );
#537 = EDGE_LOOP( '', ( #685 ) );
#538 = EDGE_LOOP( '', ( #686 ) );
#539 = AXIS2_PLACEMENT_3D( '', #687, #688, #689 );
#540 = EDGE_LOOP( '', ( #690 ) );
#541 = EDGE_LOOP( '', ( #691 ) );
#542 = AXIS2_PLACEMENT_3D( '', #692, #693, #694 );
#543 = EDGE_LOOP( '', ( #695 ) );
#544 = EDGE_LOOP( '', ( #696 ) );
#545 = AXIS2_PLACEMENT_3D( '', #697, #698, #699 );
#546 = EDGE_LOOP( '', ( #700 ) );
#547 = EDGE_LOOP( '', ( #701 ) );
#548 = AXIS2_PLACEMENT_3D( '', #702, #703, #704 );
#549 = EDGE_LOOP( '', ( #705 ) );
#550 = EDGE_LOOP( '', ( #706 ) );
#551 = AXIS2_PLACEMENT_3D( '', #707, #708, #709 );
#552 = EDGE_LOOP( '', ( #710 ) );
#553 = EDGE_LOOP( '', ( #711 ) );
#554 = AXIS2_PLACEMENT_3D( '', #712, #713, #714 );
#555 = EDGE_LOOP( '', ( #715 ) );
#556 = EDGE_LOOP( '', ( #716 ) );
#557 = AXIS2_PLACEMENT_3D( '', #717, #718, #719 );
#558 = EDGE_LOOP( '', ( #720 ) );
#559 = EDGE_LOOP( '', ( #721 ) );
#560 = AXIS2_PLACEMENT_3D( '', #722, #723, #724 );
#561 = EDGE_LOOP( '', ( #725 ) );
#562 = EDGE_LOOP( '', ( #726 ) );
#563 = AXIS2_PLACEMENT_3D( '', #727, #728, #729 );
#564 = VERTEX_LOOP( '', #730 );
#565 = VERTEX_LOOP( '', #731 );
#566 = AXIS2_PLACEMENT_3D( '', #732, #733, #734 );
#567 = ORIENTED_EDGE( '', *, *, #735, .T. );
#568 = ORIENTED_EDGE( '', *, *, #736, .F. );
#569 = CARTESIAN_POINT( '', ( -8.13151629364128E-017, 8.30000000000000, 0.000000000000000 ) );
#570 = DIRECTION( '', ( -1.00000000000000, 0.000000000000000, 0.000000000000000 ) );
#571 = DIRECTION( '', ( 0.000000000000000, 0.000000000000000, 1.00000000000000 ) );
#572 = ORIENTED_EDGE( '', *, *, #736, .T. );
#573 = ORIENTED_EDGE( '', *, *, #737, .F. );
#574 = CARTESIAN_POINT( '', ( 0.200000000000000, 0.000000000000000, 0.000000000000000 ) );
#575 = DIRECTION( '', ( 1.00000000000000, 0.000000000000000, -0.000000000000000 ) );
#576 = DIRECTION( '', ( -0.000000000000000, 0.000000000000000, -1.00000000000000 ) );
#577 = ORIENTED_EDGE( '', *, *, #738, .T. );
#578 = ORIENTED_EDGE( '', *, *, #735, .F. );
#579 = CARTESIAN_POINT( '', ( 0.599999999999999, 0.000000000000000, 0.000000000000000 ) );
#580 = DIRECTION( '', ( 1.00000000000000, 0.000000000000000, -0.000000000000000 ) );
#581 = DIRECTION( '', ( -0.000000000000000, 0.000000000000000, -1.00000000000000 ) );
#582 = ORIENTED_EDGE( '', *, *, #739, .T. );
#583 = ORIENTED_EDGE( '', *, *, #738, .F. );
#584 = CARTESIAN_POINT( '', ( 8.40000000000000, 0.000000000000000, 0.000000000000000 ) );
#585 = DIRECTION( '', ( -1.00000000000000, -0.000000000000000, 0.000000000000000 ) );
#586 = DIRECTION( '', ( -0.000000000000000, 0.000000000000000, -1.00000000000000 ) );
#587 = ORIENTED_EDGE( '', *, *, #740, .T. );
#588 = ORIENTED_EDGE( '', *, *, #739, .F. );
#589 = CARTESIAN_POINT( '', ( 8.40000000000000, 0.000000000000000, 0.000000000000000 ) );
#590 = DIRECTION( '', ( 1.00000000000000, 0.000000000000000, -0.000000000000000 ) );
#591 = DIRECTION( '', ( -0.000000000000000, 0.000000000000000, -1.00000000000000 ) );
#592 = ORIENTED_EDGE( '', *, *, #741, .T. );
#593 = ORIENTED_EDGE( '', *, *, #740, .F. );
#594 = CARTESIAN_POINT( '', ( 9.00000000000000, 5.60000000000000, 0.000000000000000 ) );
#595 = DIRECTION( '', ( 1.00000000000000, 0.000000000000000, -0.000000000000000 ) );
#596 = DIRECTION( '', ( -0.000000000000000, 0.000000000000000, -1.00000000000000 ) );
#597 = ORIENTED_EDGE( '', *, *, #742, .T. );
#598 = ORIENTED_EDGE( '', *, *, #741, .F. );
#599 = CARTESIAN_POINT( '', ( 8.80000000000000, 0.000000000000000, 0.000000000000000 ) );
#600 = DIRECTION( '', ( 1.00000000000000, 0.000000000000000, -0.000000000000000 ) );
#601 = DIRECTION( '', ( -0.000000000000000, 0.000000000000000, -1.00000000000000 ) );
#602 = ORIENTED_EDGE( '', *, *, #743, .T. );
#603 = ORIENTED_EDGE( '', *, *, #742, .F. );
#604 = CARTESIAN_POINT( '', ( 8.40000000000000, 0.000000000000000, 0.000000000000000 ) );
#605 = DIRECTION( '', ( -1.00000000000000, -0.000000000000000, 0.000000000000000 ) );
#606 = DIRECTION( '', ( -0.000000000000000, 0.000000000000000, -1.00000000000000 ) );
#607 = ORIENTED_EDGE( '', *, *, #743, .F. );
#608 = ORIENTED_EDGE( '', *, *, #744, .T. );
#609 = CARTESIAN_POINT( '', ( 4.50000000000000, 0.000000000000000, 0.000000000000000 ) );
#610 = DIRECTION( '', ( 1.00000000000000, 0.000000000000000, -0.000000000000000 ) );
#611 = DIRECTION( '', ( -0.000000000000000, 0.000000000000000, -1.00000000000000 ) );
#612 = ORIENTED_EDGE( '', *, *, #737, .T. );
#613 = ORIENTED_EDGE( '', *, *, #744, .F. );
#614 = CARTESIAN_POINT( '', ( 8.40000000000000, 0.000000000000000, 0.000000000000000 ) );
#615 = DIRECTION( '', ( -1.00000000000000, -0.000000000000000, 0.000000000000000 ) );
#616 = DIRECTION( '', ( -0.000000000000000, 0.000000000000000, -1.00000000000000 ) );
#617 = ORIENTED_EDGE( '', *, *, #745, .T. );
#618 = ORIENTED_EDGE( '', *, *, #746, .F. );
#619 = CARTESIAN_POINT( '', ( 0.600000000000001, 0.000000000000000, 0.000000000000000 ) );
#620 = DIRECTION( '', ( 1.00000000000000, 0.000000000000000, -0.000000000000000 ) );
#621 = DIRECTION( '', ( -0.000000000000000, 0.000000000000000, -1.00000000000000 ) );
#622 = ORIENTED_EDGE( '', *, *, #746, .T. );
#623 = ORIENTED_EDGE( '', *, *, #747, .F. );
#624 = CARTESIAN_POINT( '', ( 8.40000000000000, 0.000000000000000, 0.000000000000000 ) );
#625 = DIRECTION( '', ( -1.00000000000000, -0.000000000000000, 0.000000000000000 ) );
#626 = DIRECTION( '', ( -0.000000000000000, 0.000000000000000, -1.00000000000000 ) );
#627 = ORIENTED_EDGE( '', *, *, #748, .T. );
#628 = ORIENTED_EDGE( '', *, *, #745, .F. );
#629 = CARTESIAN_POINT( '', ( 0.000000000000000, 14.4000000000000, 0.000000000000000 ) );
#630 = DIRECTION( '', ( -1.00000000000000, 0.000000000000000, 0.000000000000000 ) );
#631 = DIRECTION( '', ( 0.000000000000000, 0.000000000000000, 1.00000000000000 ) );
#632 = ORIENTED_EDGE( '', *, *, #749, .T. );
#633 = ORIENTED_EDGE( '', *, *, #748, .F. );
#634 = CARTESIAN_POINT( '', ( 8.40000000000000, 0.000000000000000, 0.000000000000000 ) );
#635 = DIRECTION( '', ( -1.00000000000000, -0.000000000000000, 0.000000000000000 ) );
#636 = DIRECTION( '', ( -0.000000000000000, 0.000000000000000, -1.00000000000000 ) );
#637 = VERTEX_POINT( '', #750 );
#638 = ORIENTED_EDGE( '', *, *, #749, .F. );
#639 = ORIENTED_EDGE( '', *, *, #751, .T. );
#640 = CARTESIAN_POINT( '', ( 0.503000000000001, 0.000000000000000, 0.000000000000000 ) );
#641 = DIRECTION( '', ( 1.00000000000000, 0.000000000000000, -0.000000000000000 ) );
#642 = DIRECTION( '', ( -0.000000000000000, 0.000000000000000, -1.00000000000000 ) );
#643 = ORIENTED_EDGE( '', *, *, #752, .T. );
#644 = ORIENTED_EDGE( '', *, *, #751, .F. );
#645 = CARTESIAN_POINT( '', ( 0.786000000000001, 0.000000000000000, 0.000000000000000 ) );
#646 = DIRECTION( '', ( -1.00000000000000, 0.000000000000000, -0.000000000000000 ) );
#647 = DIRECTION( '', ( 0.000000000000000, 0.000000000000000, 1.00000000000000 ) );
#648 = ORIENTED_EDGE( '', *, *, #753, .T. );
#649 = ORIENTED_EDGE( '', *, *, #752, .F. );
#650 = CARTESIAN_POINT( '', ( 8.40000000000000, 0.000000000000000, 0.000000000000000 ) );
#651 = DIRECTION( '', ( -1.00000000000000, -0.000000000000000, 0.000000000000000 ) );
#652 = DIRECTION( '', ( -0.000000000000000, 0.000000000000000, -1.00000000000000 ) );
#653 = VERTEX_POINT( '', #754 );
#654 = ORIENTED_EDGE( '', *, *, #753, .F. );
#655 = ORIENTED_EDGE( '', *, *, #755, .T. );
#656 = CARTESIAN_POINT( '', ( 4.50000000000000, 0.000000000000000, 0.000000000000000 ) );
#657 = DIRECTION( '', ( 1.00000000000000, 0.000000000000000, -0.000000000000000 ) );
#658 = DIRECTION( '', ( -0.000000000000000, 0.000000000000000, -1.00000000000000 ) );
#659 = ORIENTED_EDGE( '', *, *, #756, .T. );
#660 = ORIENTED_EDGE( '', *, *, #755, .F. );
#661 = CARTESIAN_POINT( '', ( 8.40000000000000, 0.000000000000000, 0.000000000000000 ) );
#662 = DIRECTION( '', ( -1.00000000000000, -0.000000000000000, 0.000000000000000 ) );
#663 = DIRECTION( '', ( -0.000000000000000, 0.000000000000000, -1.00000000000000 ) );
#664 = ORIENTED_EDGE( '', *, *, #757, .T. );
#665 = ORIENTED_EDGE( '', *, *, #756, .F. );
#666 = CARTESIAN_POINT( '', ( 8.09057111350408, 0.000000000000000, 0.000000000000000 ) );
#667 = DIRECTION( '', ( 1.00000000000000, -0.000000000000000, -0.000000000000000 ) );
#668 = DIRECTION( '', ( -0.000000000000000, 0.000000000000000, -1.00000000000000 ) );
#669 = VERTEX_POINT( '', #758 );
#670 = ORIENTED_EDGE( '', *, *, #757, .F. );
#671 = ORIENTED_EDGE( '', *, *, #759, .T. );
#672 = CARTESIAN_POINT( '', ( 8.49700000000000, 0.000000000000000, 0.000000000000000 ) );
#673 = DIRECTION( '', ( 1.00000000000000, 0.000000000000000, -0.000000000000000 ) );
#674 = DIRECTION( '', ( -0.000000000000000, 0.000000000000000, -1.00000000000000 ) );
#675 = ORIENTED_EDGE( '', *, *, #760, .T. );
#676 = ORIENTED_EDGE( '', *, *, #759, .F. );
#677 = CARTESIAN_POINT( '', ( 8.40000000000000, 0.000000000000000, 0.000000000000000 ) );
#678 = DIRECTION( '', ( -1.00000000000000, -0.000000000000000, 0.000000000000000 ) );
#679 = DIRECTION( '', ( -0.000000000000000, 0.000000000000000, -1.00000000000000 ) );
#680 = ORIENTED_EDGE( '', *, *, #761, .T. );
#681 = ORIENTED_EDGE( '', *, *, #760, .F. );
#682 = CARTESIAN_POINT( '', ( 9.00000000000000, 12.4000000000000, 0.000000000000000 ) );
#683 = DIRECTION( '', ( 1.00000000000000, 0.000000000000000, -0.000000000000000 ) );
#684 = DIRECTION( '', ( -0.000000000000000, 0.000000000000000, -1.00000000000000 ) );
#685 = ORIENTED_EDGE( '', *, *, #747, .T. );
#686 = ORIENTED_EDGE( '', *, *, #761, .F. );
#687 = CARTESIAN_POINT( '', ( 8.40000000000000, 0.000000000000000, 0.000000000000000 ) );
#688 = DIRECTION( '', ( 1.00000000000000, 0.000000000000000, -0.000000000000000 ) );
#689 = DIRECTION( '', ( -0.000000000000000, 0.000000000000000, -1.00000000000000 ) );
#690 = ORIENTED_EDGE( '', *, *, #762, .T. );
#691 = ORIENTED_EDGE( '', *, *, #763, .F. );
#692 = CARTESIAN_POINT( '', ( 0.502281000000000, 10.4500000000000, 0.000000000000000 ) );
#693 = DIRECTION( '', ( -1.00000000000000, 0.000000000000000, 0.000000000000000 ) );
#694 = DIRECTION( '', ( 0.000000000000000, 0.000000000000000, 1.00000000000000 ) );
#695 = ORIENTED_EDGE( '', *, *, #763, .T. );
#696 = ORIENTED_EDGE( '', *, *, #764, .F. );
#697 = CARTESIAN_POINT( '', ( 0.586006000000000, 0.000000000000000, 0.000000000000000 ) );
#698 = DIRECTION( '', ( 1.00000000000000, -0.000000000000000, -0.000000000000000 ) );
#699 = DIRECTION( '', ( -0.000000000000000, 0.000000000000000, -1.00000000000000 ) );
#700 = ORIENTED_EDGE( '', *, *, #765, .T. );
#701 = ORIENTED_EDGE( '', *, *, #762, .F. );
#702 = CARTESIAN_POINT( '', ( 0.669731000000000, 0.000000000000000, 0.000000000000000 ) );
#703 = DIRECTION( '', ( -1.00000000000000, -0.000000000000000, 0.000000000000000 ) );
#704 = DIRECTION( '', ( -0.000000000000000, 0.000000000000000, -1.00000000000000 ) );
#705 = ORIENTED_EDGE( '', *, *, #766, .T. );
#706 = ORIENTED_EDGE( '', *, *, #765, .F. );
#707 = CARTESIAN_POINT( '', ( 0.669731000000000, 0.000000000000000, 0.000000000000000 ) );
#708 = DIRECTION( '', ( 1.00000000000000, -0.000000000000000, -0.000000000000000 ) );
#709 = DIRECTION( '', ( -0.000000000000000, 0.000000000000000, -1.00000000000000 ) );
#710 = ORIENTED_EDGE( '', *, *, #767, .T. );
#711 = ORIENTED_EDGE( '', *, *, #766, .F. );
#712 = CARTESIAN_POINT( '', ( 0.837181000000000, 10.4500000000000, 0.000000000000000 ) );
#713 = DIRECTION( '', ( 1.00000000000000, 0.000000000000000, -0.000000000000000 ) );
#714 = DIRECTION( '', ( -0.000000000000000, 0.000000000000000, -1.00000000000000 ) );
#715 = ORIENTED_EDGE( '', *, *, #768, .T. );
#716 = ORIENTED_EDGE( '', *, *, #767, .F. );
#717 = CARTESIAN_POINT( '', ( 0.837181000000000, 0.000000000000000, 0.000000000000000 ) );
#718 = DIRECTION( '', ( -1.00000000000000, 0.000000000000000, -0.000000000000000 ) );
#719 = DIRECTION( '', ( 0.000000000000000, 0.000000000000000, 1.00000000000000 ) );
#720 = ORIENTED_EDGE( '', *, *, #769, .T. );
#721 = ORIENTED_EDGE( '', *, *, #768, .F. );
#722 = CARTESIAN_POINT( '', ( 0.669731000000000, 0.000000000000000, 0.000000000000000 ) );
#723 = DIRECTION( '', ( -1.00000000000000, -0.000000000000000, 0.000000000000000 ) );
#724 = DIRECTION( '', ( -0.000000000000000, 0.000000000000000, -1.00000000000000 ) );
#725 = ORIENTED_EDGE( '', *, *, #764, .T. );
#726 = ORIENTED_EDGE( '', *, *, #769, .F. );
#727 = CARTESIAN_POINT( '', ( 0.502281000000000, 0.000000000000000, 0.000000000000000 ) );
#728 = DIRECTION( '', ( -1.00000000000000, 0.000000000000000, -0.000000000000000 ) );
#729 = DIRECTION( '', ( 0.000000000000000, 0.000000000000000, 1.00000000000000 ) );
#730 = VERTEX_POINT( '', #770 );
#731 = VERTEX_POINT( '', #771 );
#732 = CARTESIAN_POINT( '', ( 4.50000000000000, 10.0000000000000, 0.000000000000000 ) );
#733 = DIRECTION( '', ( 1.00000000000000, -0.000000000000000, -0.000000000000000 ) );
#734 = DIRECTION( '', ( -0.000000000000000, -1.00000000000000, 0.000000000000000 ) );
#735 = EDGE_CURVE( '', #772, #772, #773, .T. );
#736 = EDGE_CURVE( '', #774, #774, #775, .T. );
#737 = EDGE_CURVE( '', #776, #776, #777, .T. );
#738 = EDGE_CURVE( '', #778, #778, #779, .T. );
#739 = EDGE_CURVE( '', #780, #780, #781, .T. );
#740 = EDGE_CURVE( '', #782, #782, #783, .T. );
#741 = EDGE_CURVE( '', #784, #784, #785, .T. );
#742 = EDGE_CURVE( '', #786, #786, #787, .T. );
#743 = EDGE_CURVE( '', #788, #788, #789, .T. );
#744 = EDGE_CURVE( '', #790, #790, #791, .T. );
#745 = EDGE_CURVE( '', #792, #792, #793, .T. );
#746 = EDGE_CURVE( '', #794, #794, #795, .T. );
#747 = EDGE_CURVE( '', #796, #796, #797, .T. );
#748 = EDGE_CURVE( '', #798, #798, #799, .T. );
#749 = EDGE_CURVE( '', #800, #800, #801, .T. );
#750 = CARTESIAN_POINT( '', ( 0.503000000000001, 0.000000000000000, -12.6830000000000 ) );
#751 = EDGE_CURVE( '', #802, #802, #803, .T. );
#752 = EDGE_CURVE( '', #804, #804, #805, .T. );
#753 = EDGE_CURVE( '', #806, #806, #807, .T. );
#754 = CARTESIAN_POINT( '', ( 4.50000000000000, 0.000000000000000, -12.3810000000000 ) );
#755 = EDGE_CURVE( '', #808, #808, #809, .T. );
#756 = EDGE_CURVE( '', #810, #810, #811, .T. );
#757 = EDGE_CURVE( '', #812, #812, #813, .T. );
#758 = CARTESIAN_POINT( '', ( 8.49700000000000, 0.000000000000000, -12.6830000166600 ) );
#759 = EDGE_CURVE( '', #814, #814, #815, .T. );
#760 = EDGE_CURVE( '', #816, #816, #817, .T. );
#761 = EDGE_CURVE( '', #818, #818, #819, .T. );
#762 = EDGE_CURVE( '', #820, #820, #821, .T. );
#763 = EDGE_CURVE( '', #822, #822, #823, .T. );
#764 = EDGE_CURVE( '', #824, #824, #825, .T. );
#765 = EDGE_CURVE( '', #826, #826, #827, .T. );
#766 = EDGE_CURVE( '', #828, #828, #829, .T. );
#767 = EDGE_CURVE( '', #830, #830, #831, .T. );
#768 = EDGE_CURVE( '', #832, #832, #833, .T. );
#769 = EDGE_CURVE( '', #834, #834, #835, .T. );
#770 = CARTESIAN_POINT( '', ( 6.88100000000000, 10.0000000000000, 0.000000000000000 ) );
#771 = CARTESIAN_POINT( '', ( 2.11900000000000, 10.0000000000000, 0.000000000000000 ) );
#772 = VERTEX_POINT( '', #836 );
#773 = CIRCLE( '', #837, 5.60000000000000 );
#774 = VERTEX_POINT( '', #838 );
#775 = CIRCLE( '', #839, 8.30000000000000 );
#776 = VERTEX_POINT( '', #840 );
#777 = CIRCLE( '', #841, 8.50000000000000 );
#778 = VERTEX_POINT( '', #842 );
#779 = CIRCLE( '', #843, 5.00000000000000 );
#780 = VERTEX_POINT( '', #844 );
#781 = CIRCLE( '', #845, 5.00000000000000 );
#782 = VERTEX_POINT( '', #846 );
#783 = CIRCLE( '', #847, 5.60000000000000 );
#784 = VERTEX_POINT( '', #848 );
#785 = CIRCLE( '', #849, 8.30000000000000 );
#786 = VERTEX_POINT( '', #850 );
#787 = CIRCLE( '', #851, 8.50000000000000 );
#788 = VERTEX_POINT( '', #852 );
#789 = CIRCLE( '', #853, 8.50000000000000 );
#790 = VERTEX_POINT( '', #854 );
#791 = CIRCLE( '', #855, 8.50000000000000 );
#792 = VERTEX_POINT( '', #856 );
#793 = CIRCLE( '', #857, 14.4000000000000 );
#794 = VERTEX_POINT( '', #858 );
#795 = CIRCLE( '', #859, 15.0000000000000 );
#796 = VERTEX_POINT( '', #860 );
#797 = CIRCLE( '', #861, 15.0000000000000 );
#798 = VERTEX_POINT( '', #862 );
#799 = CIRCLE( '', #863, 12.4000000000000 );
#800 = VERTEX_POINT( '', #864 );
#801 = CIRCLE( '', #865, 12.4000000000000 );
#802 = VERTEX_POINT( '', #866 );
#803 = CIRCLE( '', #867, 12.4000000000000 );
#804 = VERTEX_POINT( '', #868 );
#805 = CIRCLE( '', #869, 11.7000000000000 );
#806 = VERTEX_POINT( '', #870 );
#807 = CIRCLE( '', #871, 11.7000000000000 );
#808 = VERTEX_POINT( '', #872 );
#809 = CIRCLE( '', #873, 11.7000000000000 );
#810 = VERTEX_POINT( '', #874 );
#811 = CIRCLE( '', #875, 11.7000000000000 );
#812 = VERTEX_POINT( '', #876 );
#813 = CIRCLE( '', #877, 12.4000000000000 );
#814 = VERTEX_POINT( '', #878 );
#815 = CIRCLE( '', #879, 12.4000004937201 );
#816 = VERTEX_POINT( '', #880 );
#817 = CIRCLE( '', #881, 12.4000000000000 );
#818 = VERTEX_POINT( '', #882 );
#819 = CIRCLE( '', #883, 14.4000000000000 );
#820 = VERTEX_POINT( '', #884 );
#821 = CIRCLE( '', #885, 8.50000000000000 );
#822 = VERTEX_POINT( '', #886 );
#823 = CIRCLE( '', #887, 10.4500000000000 );
#824 = VERTEX_POINT( '', #888 );
#825 = CIRCLE( '', #889, 11.4250000000000 );
#826 = VERTEX_POINT( '', #890 );
#827 = CIRCLE( '', #891, 8.50000000000000 );
#828 = VERTEX_POINT( '', #892 );
#829 = CIRCLE( '', #893, 10.4500000000000 );
#830 = VERTEX_POINT( '', #894 );
#831 = CIRCLE( '', #895, 11.4034311519231 );
#832 = VERTEX_POINT( '', #896 );
#833 = CIRCLE( '', #897, 12.4000000000000 );
#834 = VERTEX_POINT( '', #898 );
#835 = CIRCLE( '', #899, 12.4000000000000 );
#836 = CARTESIAN_POINT( '', ( 0.000000000000000, 0.000000000000000, -5.60000000000000 ) );
#837 = AXIS2_PLACEMENT_3D( '', #900, #901, #902 );
#838 = CARTESIAN_POINT( '', ( 0.000000000000000, 0.000000000000000, -8.30000000000000 ) );
#839 = AXIS2_PLACEMENT_3D( '', #903, #904, #905 );
#840 = CARTESIAN_POINT( '', ( 0.200000000000001, 0.000000000000000, -8.50000000000000 ) );
#841 = AXIS2_PLACEMENT_3D( '', #906, #907, #908 );
#842 = CARTESIAN_POINT( '', ( 0.599999999999999, 0.000000000000000, -5.00000000000000 ) );
#843 = AXIS2_PLACEMENT_3D( '', #909, #910, #911 );
#844 = CARTESIAN_POINT( '', ( 8.40000000000000, 0.000000000000000, -5.00000000000000 ) );
#845 = AXIS2_PLACEMENT_3D( '', #912, #913, #914 );
#846 = CARTESIAN_POINT( '', ( 9.00000000000000, 0.000000000000000, -5.60000000000000 ) );
#847 = AXIS2_PLACEMENT_3D( '', #915, #916, #917 );
#848 = CARTESIAN_POINT( '', ( 9.00000000000000, 0.000000000000000, -8.30000000000000 ) );
#849 = AXIS2_PLACEMENT_3D( '', #918, #919, #920 );
#850 = CARTESIAN_POINT( '', ( 8.80000000000000, 0.000000000000000, -8.50000000000000 ) );
#851 = AXIS2_PLACEMENT_3D( '', #921, #922, #923 );
#852 = CARTESIAN_POINT( '', ( 6.34909734735627, 0.000000000000000, -8.50000000000000 ) );
#853 = AXIS2_PLACEMENT_3D( '', #924, #925, #926 );
#854 = CARTESIAN_POINT( '', ( 2.65090265264373, 0.000000000000000, -8.50000000000000 ) );
#855 = AXIS2_PLACEMENT_3D( '', #927, #928, #929 );
#856 = CARTESIAN_POINT( '', ( 0.000000000000000, 0.000000000000000, -14.4000000000000 ) );
#857 = AXIS2_PLACEMENT_3D( '', #930, #931, #932 );
#858 = CARTESIAN_POINT( '', ( 0.600000000000000, 0.000000000000000, -15.0000000000000 ) );
#859 = AXIS2_PLACEMENT_3D( '', #933, #934, #935 );
#860 = CARTESIAN_POINT( '', ( 8.40000000000000, 0.000000000000000, -15.0000000000000 ) );
#861 = AXIS2_PLACEMENT_3D( '', #936, #937, #938 );
#862 = CARTESIAN_POINT( '', ( 0.000000000000000, 0.000000000000000, -12.4000000000000 ) );
#863 = AXIS2_PLACEMENT_3D( '', #939, #940, #941 );
#864 = CARTESIAN_POINT( '', ( 0.220000000000000, 0.000000000000000, -12.4000000000000 ) );
#865 = AXIS2_PLACEMENT_3D( '', #942, #943, #944 );
#866 = CARTESIAN_POINT( '', ( 0.786000000000001, 0.000000000000000, -12.4000000000000 ) );
#867 = AXIS2_PLACEMENT_3D( '', #945, #946, #947 );
#868 = CARTESIAN_POINT( '', ( 0.909428886495924, 0.000000000000000, -11.7000000000000 ) );
#869 = AXIS2_PLACEMENT_3D( '', #948, #949, #950 );
#870 = CARTESIAN_POINT( '', ( 2.83291841831301, 0.000000000000000, -11.7000000000000 ) );
#871 = AXIS2_PLACEMENT_3D( '', #951, #952, #953 );
#872 = CARTESIAN_POINT( '', ( 6.16708158168699, 0.000000000000000, -11.7000000000000 ) );
#873 = AXIS2_PLACEMENT_3D( '', #954, #955, #956 );
#874 = CARTESIAN_POINT( '', ( 8.09057111350408, 0.000000000000000, -11.7000000000000 ) );
#875 = AXIS2_PLACEMENT_3D( '', #957, #958, #959 );
#876 = CARTESIAN_POINT( '', ( 8.21400000000000, 0.000000000000000, -12.4000000000000 ) );
#877 = AXIS2_PLACEMENT_3D( '', #960, #961, #962 );
#878 = CARTESIAN_POINT( '', ( 8.77999999999960, 0.000000000000000, -12.4000004937201 ) );
#879 = AXIS2_PLACEMENT_3D( '', #963, #964, #965 );
#880 = CARTESIAN_POINT( '', ( 9.00000000000000, 0.000000000000000, -12.4000000000000 ) );
#881 = AXIS2_PLACEMENT_3D( '', #966, #967, #968 );
#882 = CARTESIAN_POINT( '', ( 9.00000000000000, 0.000000000000000, -14.4000000000000 ) );
#883 = AXIS2_PLACEMENT_3D( '', #969, #970, #971 );
#884 = CARTESIAN_POINT( '', ( 0.502281000000000, 0.000000000000000, -8.50000000000000 ) );
#885 = AXIS2_PLACEMENT_3D( '', #972, #973, #974 );
#886 = CARTESIAN_POINT( '', ( 0.502281000000000, 0.000000000000000, -10.4500000000000 ) );
#887 = AXIS2_PLACEMENT_3D( '', #975, #976, #977 );
#888 = CARTESIAN_POINT( '', ( 0.586006000000000, 0.000000000000000, -11.4250000000000 ) );
#889 = AXIS2_PLACEMENT_3D( '', #978, #979, #980 );
#890 = CARTESIAN_POINT( '', ( 0.669731000000000, 0.000000000000000, -8.50000000000000 ) );
#891 = AXIS2_PLACEMENT_3D( '', #981, #982, #983 );
#892 = CARTESIAN_POINT( '', ( 0.837181000000000, 0.000000000000000, -10.4500000000000 ) );
#893 = AXIS2_PLACEMENT_3D( '', #984, #985, #986 );
#894 = CARTESIAN_POINT( '', ( 0.837181000000000, 0.000000000000000, -11.4034311519231 ) );
#895 = AXIS2_PLACEMENT_3D( '', #987, #988, #989 );
#896 = CARTESIAN_POINT( '', ( 0.669731000000000, 0.000000000000000, -12.4000000000000 ) );
#897 = AXIS2_PLACEMENT_3D( '', #990, #991, #992 );
#898 = CARTESIAN_POINT( '', ( 0.502281000000000, 0.000000000000000, -12.4000000000000 ) );
#899 = AXIS2_PLACEMENT_3D( '', #993, #994, #995 );
#900 = CARTESIAN_POINT( '', ( 0.000000000000000, 0.000000000000000, 0.000000000000000 ) );
#901 = DIRECTION( '', ( 1.00000000000000, 0.000000000000000, -0.000000000000000 ) );
#902 = DIRECTION( '', ( -0.000000000000000, 0.000000000000000, -1.00000000000000 ) );
#903 = CARTESIAN_POINT( '', ( 0.000000000000000, 0.000000000000000, 0.000000000000000 ) );
#904 = DIRECTION( '', ( 1.00000000000000, 0.000000000000000, -0.000000000000000 ) );
#905 = DIRECTION( '', ( -0.000000000000000, 0.000000000000000, -1.00000000000000 ) );
#906 = CARTESIAN_POINT( '', ( 0.200000000000001, 0.000000000000000, 0.000000000000000 ) );
#907 = DIRECTION( '', ( 1.00000000000000, 0.000000000000000, -0.000000000000000 ) );
#908 = DIRECTION( '', ( -0.000000000000000, 0.000000000000000, -1.00000000000000 ) );
#909 = CARTESIAN_POINT( '', ( 0.599999999999999, 0.000000000000000, 0.000000000000000 ) );
#910 = DIRECTION( '', ( 1.00000000000000, 0.000000000000000, -0.000000000000000 ) );
#911 = DIRECTION( '', ( -0.000000000000000, 0.000000000000000, -1.00000000000000 ) );
#912 = CARTESIAN_POINT( '', ( 8.40000000000000, 0.000000000000000, 0.000000000000000 ) );
#913 = DIRECTION( '', ( 1.00000000000000, 0.000000000000000, -0.000000000000000 ) );
#914 = DIRECTION( '', ( -0.000000000000000, 0.000000000000000, -1.00000000000000 ) );
#915 = CARTESIAN_POINT( '', ( 9.00000000000000, 0.000000000000000, 0.000000000000000 ) );
#916 = DIRECTION( '', ( 1.00000000000000, 0.000000000000000, -0.000000000000000 ) );
#917 = DIRECTION( '', ( -0.000000000000000, 0.000000000000000, -1.00000000000000 ) );
#918 = CARTESIAN_POINT( '', ( 9.00000000000000, 0.000000000000000, 0.000000000000000 ) );
#919 = DIRECTION( '', ( 1.00000000000000, 0.000000000000000, -0.000000000000000 ) );
#920 = DIRECTION( '', ( -0.000000000000000, 0.000000000000000, -1.00000000000000 ) );
#921 = CARTESIAN_POINT( '', ( 8.80000000000000, 0.000000000000000, 0.000000000000000 ) );
#922 = DIRECTION( '', ( 1.00000000000000, 0.000000000000000, -0.000000000000000 ) );
#923 = DIRECTION( '', ( -0.000000000000000, 0.000000000000000, -1.00000000000000 ) );
#924 = CARTESIAN_POINT( '', ( 6.34909734735627, 0.000000000000000, 0.000000000000000 ) );
#925 = DIRECTION( '', ( 1.00000000000000, 0.000000000000000, -0.000000000000000 ) );
#926 = DIRECTION( '', ( -0.000000000000000, 0.000000000000000, -1.00000000000000 ) );
#927 = CARTESIAN_POINT( '', ( 2.65090265264373, 0.000000000000000, 0.000000000000000 ) );
#928 = DIRECTION( '', ( 1.00000000000000, 0.000000000000000, -0.000000000000000 ) );
#929 = DIRECTION( '', ( -0.000000000000000, 0.000000000000000, -1.00000000000000 ) );
#930 = CARTESIAN_POINT( '', ( 0.000000000000000, 0.000000000000000, 0.000000000000000 ) );
#931 = DIRECTION( '', ( 1.00000000000000, 0.000000000000000, -0.000000000000000 ) );
#932 = DIRECTION( '', ( -0.000000000000000, 0.000000000000000, -1.00000000000000 ) );
#933 = CARTESIAN_POINT( '', ( 0.600000000000000, 0.000000000000000, 0.000000000000000 ) );
#934 = DIRECTION( '', ( 1.00000000000000, 0.000000000000000, -0.000000000000000 ) );
#935 = DIRECTION( '', ( -0.000000000000000, 0.000000000000000, -1.00000000000000 ) );
#936 = CARTESIAN_POINT( '', ( 8.40000000000000, 0.000000000000000, 0.000000000000000 ) );
#937 = DIRECTION( '', ( 1.00000000000000, 0.000000000000000, -0.000000000000000 ) );
#938 = DIRECTION( '', ( -0.000000000000000, 0.000000000000000, -1.00000000000000 ) );
#939 = CARTESIAN_POINT( '', ( 0.000000000000000, 0.000000000000000, 0.000000000000000 ) );
#940 = DIRECTION( '', ( 1.00000000000000, 0.000000000000000, -0.000000000000000 ) );
#941 = DIRECTION( '', ( -0.000000000000000, 0.000000000000000, -1.00000000000000 ) );
#942 = CARTESIAN_POINT( '', ( 0.220000000000000, 0.000000000000000, 0.000000000000000 ) );
#943 = DIRECTION( '', ( 1.00000000000000, 0.000000000000000, -0.000000000000000 ) );
#944 = DIRECTION( '', ( -0.000000000000000, 0.000000000000000, -1.00000000000000 ) );
#945 = CARTESIAN_POINT( '', ( 0.786000000000001, 0.000000000000000, 0.000000000000000 ) );
#946 = DIRECTION( '', ( 1.00000000000000, 0.000000000000000, -0.000000000000000 ) );
#947 = DIRECTION( '', ( -0.000000000000000, 0.000000000000000, -1.00000000000000 ) );
#948 = CARTESIAN_POINT( '', ( 0.909428886495924, 0.000000000000000, 0.000000000000000 ) );
#949 = DIRECTION( '', ( 1.00000000000000, 0.000000000000000, -0.000000000000000 ) );
#950 = DIRECTION( '', ( -0.000000000000000, 0.000000000000000, -1.00000000000000 ) );
#951 = CARTESIAN_POINT( '', ( 2.83291841831301, 0.000000000000000, 0.000000000000000 ) );
#952 = DIRECTION( '', ( 1.00000000000000, 0.000000000000000, -0.000000000000000 ) );
#953 = DIRECTION( '', ( -0.000000000000000, 0.000000000000000, -1.00000000000000 ) );
#954 = CARTESIAN_POINT( '', ( 6.16708158168699, 0.000000000000000, 0.000000000000000 ) );
#955 = DIRECTION( '', ( 1.00000000000000, 0.000000000000000, -0.000000000000000 ) );
#956 = DIRECTION( '', ( -0.000000000000000, 0.000000000000000, -1.00000000000000 ) );
#957 = CARTESIAN_POINT( '', ( 8.09057111350408, 0.000000000000000, 0.000000000000000 ) );
#958 = DIRECTION( '', ( 1.00000000000000, 0.000000000000000, -0.000000000000000 ) );
#959 = DIRECTION( '', ( -0.000000000000000, 0.000000000000000, -1.00000000000000 ) );
#960 = CARTESIAN_POINT( '', ( 8.21400000000000, 0.000000000000000, 0.000000000000000 ) );
#961 = DIRECTION( '', ( 1.00000000000000, 0.000000000000000, -0.000000000000000 ) );
#962 = DIRECTION( '', ( -0.000000000000000, 0.000000000000000, -1.00000000000000 ) );
#963 = CARTESIAN_POINT( '', ( 8.77999999999960, 0.000000000000000, 0.000000000000000 ) );
#964 = DIRECTION( '', ( 1.00000000000000, 0.000000000000000, -0.000000000000000 ) );
#965 = DIRECTION( '', ( -0.000000000000000, 0.000000000000000, -1.00000000000000 ) );
#966 = CARTESIAN_POINT( '', ( 9.00000000000000, 0.000000000000000, 0.000000000000000 ) );
#967 = DIRECTION( '', ( 1.00000000000000, 0.000000000000000, -0.000000000000000 ) );
#968 = DIRECTION( '', ( -0.000000000000000, 0.000000000000000, -1.00000000000000 ) );
#969 = CARTESIAN_POINT( '', ( 9.00000000000000, 0.000000000000000, 0.000000000000000 ) );
#970 = DIRECTION( '', ( 1.00000000000000, 0.000000000000000, -0.000000000000000 ) );
#971 = DIRECTION( '', ( -0.000000000000000, 0.000000000000000, -1.00000000000000 ) );
#972 = CARTESIAN_POINT( '', ( 0.502281000000000, 0.000000000000000, 0.000000000000000 ) );
#973 = DIRECTION( '', ( 1.00000000000000, 0.000000000000000, -0.000000000000000 ) );
#974 = DIRECTION( '', ( -0.000000000000000, 0.000000000000000, -1.00000000000000 ) );
#975 = CARTESIAN_POINT( '', ( 0.502281000000000, 0.000000000000000, 0.000000000000000 ) );
#976 = DIRECTION( '', ( 1.00000000000000, 0.000000000000000, -0.000000000000000 ) );
#977 = DIRECTION( '', ( -0.000000000000000, 0.000000000000000, -1.00000000000000 ) );
#978 = CARTESIAN_POINT( '', ( 0.586006000000000, 0.000000000000000, 0.000000000000000 ) );
#979 = DIRECTION( '', ( 1.00000000000000, 0.000000000000000, -0.000000000000000 ) );
#980 = DIRECTION( '', ( -0.000000000000000, 0.000000000000000, -1.00000000000000 ) );
#981 = CARTESIAN_POINT( '', ( 0.669731000000000, 0.000000000000000, 0.000000000000000 ) );
#982 = DIRECTION( '', ( 1.00000000000000, 0.000000000000000, -0.000000000000000 ) );
#983 = DIRECTION( '', ( -0.000000000000000, 0.000000000000000, -1.00000000000000 ) );
#984 = CARTESIAN_POINT( '', ( 0.837181000000000, 0.000000000000000, 0.000000000000000 ) );
#985 = DIRECTION( '', ( 1.00000000000000, 0.000000000000000, -0.000000000000000 ) );
#986 = DIRECTION( '', ( -0.000000000000000, 0.000000000000000, -1.00000000000000 ) );
#987 = CARTESIAN_POINT( '', ( 0.837181000000000, 0.000000000000000, 0.000000000000000 ) );
#988 = DIRECTION( '', ( 1.00000000000000, 0.000000000000000, -0.000000000000000 ) );
#989 = DIRECTION( '', ( -0.000000000000000, 0.000000000000000, -1.00000000000000 ) );
#990 = CARTESIAN_POINT( '', ( 0.669731000000000, 0.000000000000000, 0.000000000000000 ) );
#991 = DIRECTION( '', ( 1.00000000000000, 0.000000000000000, -0.000000000000000 ) );
#992 = DIRECTION( '', ( -0.000000000000000, 0.000000000000000, -1.00000000000000 ) );
#993 = CARTESIAN_POINT( '', ( 0.502281000000000, 0.000000000000000, 0.000000000000000 ) );
#994 = DIRECTION( '', ( 1.00000000000000, 0.000000000000000, -0.000000000000000 ) );
#995 = DIRECTION( '', ( -0.000000000000000, 0.000000000000000, -1.00000000000000 ) );
ENDSEC;
END-ISO-10303-21;
